epsilon,Li,Na,K,Rb,Cs,F,Cl,Br,I
Li,0.3367344,LB,LB,LB,LB,LB,LB,LB,LB
Na,,0.3526418,LB,LB,LB,LB,LB,LB,LB
K,,,0.4297054,LB,LB,LB,LB,LB,LB
Rb,,,,0.4451036,LB,LB,LB,LB,LB
Cs,,,,,0.0898565,LB,LB,LB,LB
F,,,,,,0.0074005,LB,LB,LB
Cl,,,,,,,0.012785,LB,LB
Br,,,,,,,,0.0269586,LB
I,,,,,,,,,0.0427845
