sigma,Li,Na,K,Rb,Cs,F,Cl,Br,I
Li,1.43969232851479,LB,LB,LB,LB,LB,LB,LB,LB
Na,,2.18448365688011,LB,LB,LB,LB,LB,LB,LB
K,,,2.83305792368628,LB,LB,LB,LB,LB,LB
Rb,,,,3.04509181860368,LB,LB,LB,LB,LB
Cs,,,,,3.36403355969792,LB,LB,LB,LB
F,,,,,,4.52220189328036,LB,LB,LB
Cl,,,,,,,4.91776092413467,LB,LB
Br,,,,,,,,4.93201530362492,LB
I,,,,,,,,,5.25986603190056
